…
``` r
n_samples = 200
fit = sowan_2_net(
  node_data = node_data,
  n_samples = n_samples
)
```

We can inspect the results. Columns 2, 3 and 4 help diagnose the quality of the solution. When `status = 4`, we know that `nloptr` converged correctly. Additionally, we want the error (squared difference between the given sums of weights and the node sums of the inferred networks) to be as low as possible, and the sum of the components of the matrix equal to 1

``` r
print(fit)
```

    ## # A tibble: 200 x 5
    ##    index status        error    sum_M               M
    ##    <int>  <int>        <dbl>    <dbl>          <list>
    ##  1     1      4 9.626759e-23 1.000000 <dbl [10 x 10]>
    ##  2     2      4 1.741081e-13 1.000001 <dbl [10 x 10]>
    ##  3     3      4 1.889021e-23 1.000000 <dbl [10 x 10]>
    ##  4     4      4 1.179090e-15 1.000000 <dbl [10 x 10]>
    ##  5     5      4 2.133505e-12 1.000002 <dbl [10 x 10]>
    ##  6     6      4 3.456350e-20 1.000000 <dbl [10 x 10]>
    ##  7     7      4 1.156206e-18 1.000000 <dbl [10 x 10]>
    ##  8     8      4 7.132773e-23 1.000000 <dbl [10 x 10]>
    ##  9     9      4 5.186321e-12 1.000001 <dbl [10 x 10]>
    ## 10    10      4 1.056945e-13 1.000001 <dbl [10 x 10]>
    ## # ... with 190 more rows
…
